<?xml version="1.0" encoding="utf-8"?>
<!-- Generator: Adobe Illustrator 16.0.0, SVG Export Plug-In . SVG Version: 6.00 Build 0)  -->
<!DOCTYPE svg PUBLIC "-//W3C//DTD SVG 1.1//EN" "http://www.w3.org/Graphics/SVG/1.1/DTD/svg11.dtd">
<svg version="1.1" id="Layer_1" xmlns="http://www.w3.org/2000/svg" xmlns:xlink="http://www.w3.org/1999/xlink" x="0px" y="0px"
	 width="77.175px" height="33.514px" viewBox="0 0 77.175 33.514" enable-background="new 0 0 77.175 33.514" xml:space="preserve">
<path fill="#021E43" d="M39.078,28.609c0,1.928,0.111,3.471,0.532,4.635h-3.964c0.457-1.164,0.534-2.707,0.534-4.635v-9.812
	c0-1.538-0.154-2.694-0.576-3.544l3.474-1.053V28.609z M61.905,28.609c0,1.928,0.118,3.471,0.539,4.635h-3.968
	c0.459-1.164,0.537-2.707,0.537-4.635v-9.812c0-1.538-0.154-2.694-0.575-3.544l3.467-1.053V28.609z M46.687,28.609
	c0,1.928,0.113,3.471,0.535,4.635h-3.967c0.459-1.164,0.537-2.707,0.537-4.635V7.917c0-1.54-0.15-2.696-0.575-3.542l3.47-1.054
	V28.609z M54.296,28.609c0,1.928,0.115,3.471,0.537,4.635h-3.967c0.461-1.164,0.535-2.707,0.535-4.635V4.599
	c0-1.542-0.152-2.695-0.576-3.545L54.296,0V28.609z M31.863,7.462c-0.065,1.195-0.19,2.393-0.659,3.687l-6.147,15.888h-0.14
	l-5.693-15.849c-0.573-1.562-0.642-2.862-0.673-3.725h-4.34c0.493,0.679,1.087,1.712,1.632,3.07l0.815,2.067l-5.645,14.667h-0.104
	L4.986,11.149c-0.57-1.507-0.649-2.748-0.725-3.687H0c0.442,0.626,1.194,1.676,1.753,3.148l8.518,22.61h0.633l6.722-17.665
	l6.605,17.665h0.682l9.25-22.418c0.628-1.577,1.472-2.692,1.945-3.34H31.863z M76.181,17.779c-0.821-0.747-2.35-1.55-4.307-1.518
	c-1.905,0.033-3.067,1.045-3.067,2.442c0,0.74,0.351,1.364,1.589,2.124c0.988,0.619,2.629,1.477,3.127,1.755
	c3.002,1.677,3.652,3.409,3.652,5.542c0,2.59-1.973,5.328-6.998,5.389c-2.84,0.031-4.439-0.802-4.439-0.802l0.035-3.364
	c0,0,1.564,2,4.535,2.034c2.408,0.03,3.8-1.272,3.819-3.102c0.013-1.335-0.967-2.469-3.591-3.831
	c-1.879-0.974-4.634-2.482-4.647-4.997c-0.013-2.917,2.366-5.237,6.296-5.237c2.626,0,3.996,0.879,3.996,0.879V17.779z"/>
</svg>
